[
  {
    "description": "Add support of BUILD_FROM_FILE variable to trigger job with file parameters. Allow to pass files to jenkins job.",
    "type": "minor"
  },
  {
    "description": "Add support of custom jenkins job path to file parameter",
    "type": "minor"
  },
  {
    "description": "Fix issues with job parameters. Refactor passing parameters to jenkins. Refactor jenkins job url prefix from build to buildWithParameters.",
    "type": "minor"
  },
  {
    "description": "Update README with examples of JOB_PARAMETERS and BUILD_FROM_FILE usage.",
    "type": "minor"
  },
  {
    "description": "Refactor logic of WAIT for trigger job build.",
    "type": "patch"
  },
  {
    "description": "Update dependencies in test/requirements",
    "type": "patch"
  }
]